Bioeconomy Trends Assessment
…
Check available years in data

We explore the years available for the data

yearminmax<-merged %>%
    group_by(indicator_id) %>%
  mutate(minyr = min(time),maxyr=max(time)) %>%
  distinct(indicator_id, minyr, maxyr) %>%
  arrange(indicator_id)
print(yearminmax)

## # A tibble: 39 x 3
## # Groups:   indicator_id [39]
##    indicator_id minyr maxyr
##    <chr>        <int> <int>
##  1 1.1.a.1       2001  2019
##  2 1.1.a.4       2000  2017
##  3 1.1.b.1       2015  2018
##  4 1.1.c.1       2000  2018
##  5 2.1.a.1       2000  2018
##  6 2.1.a.2       2000  2018
##  7 2.1.a.4       2000  2018
##  8 2.1.b.4       2012  2018
##  9 2.1.b.9       1990  2020
## 10 2.1.d.1       1990  2018
## # ... with 29 more rows
…
